grid solution 
0.000000e+00 0.000000e+00 
5.000000e-01 7.269562e-02 
1.000000e+00 1.748148e-01 
1.500000e+00 3.379938e-01 
2.000000e+00 5.951157e-01 
2.500000e+00 9.737163e-01 
3.000000e+00 1.483441e+00 
3.500000e+00 2.101099e+00 
4.000000e+00 2.761130e+00 
4.500000e+00 3.360612e+00 
5.000000e+00 3.783179e+00 
5.500000e+00 3.935859e+00 
6.000000e+00 3.783016e+00 
6.500000e+00 3.360109e+00 
7.000000e+00 2.759778e+00 
7.500000e+00 2.097650e+00 
8.000000e+00 1.475044e+00 
8.500000e+00 9.542482e-01 
9.000000e+00 5.522727e-01 
9.500000e+00 2.488282e-01 
1.000000e+01 0.000000e+00 
