grid solution 
0.000000e+00 0.000000e+00 
5.000000e-01 1.533339e-02 
1.000000e+00 4.583929e-02 
1.500000e+00 1.156448e-01 
2.000000e+00 2.662829e-01 
2.500000e+00 5.601952e-01 
3.000000e+00 1.069150e+00 
3.500000e+00 1.837050e+00 
4.000000e+00 2.821851e+00 
4.500000e+00 3.852037e+00 
5.000000e+00 4.651723e+00 
5.500000e+00 4.955219e+00 
6.000000e+00 4.651720e+00 
6.500000e+00 3.852022e+00 
7.000000e+00 2.821798e+00 
7.500000e+00 1.836864e+00 
8.000000e+00 1.068529e+00 
8.500000e+00 5.582134e-01 
9.000000e+00 2.602807e-01 
9.500000e+00 9.850171e-02 
1.000000e+01 0.000000e+00 
