grid solution 
0.000000e+00 0.000000e+00 
5.000000e-01 1.532663e-05 
1.000000e+00 9.632696e-05 
1.500000e+00 5.893073e-04 
2.000000e+00 3.570484e-03 
2.500000e+00 2.083472e-02 
3.000000e+00 1.100415e-01 
3.500000e+00 4.839911e-01 
4.000000e+00 1.642244e+00 
4.500000e+00 4.068743e+00 
5.000000e+00 7.106156e+00 
5.500000e+00 8.576506e+00 
6.000000e+00 7.106156e+00 
6.500000e+00 4.068743e+00 
7.000000e+00 1.642244e+00 
7.500000e+00 4.839911e-01 
8.000000e+00 1.100414e-01 
8.500000e+00 2.083430e-02 
9.000000e+00 3.567914e-03 
9.500000e+00 5.735719e-04 
1.000000e+01 0.000000e+00 
