grid solution 
0.000000e+00 0.000000e+00 
5.000000e-01 1.321347e-01 
1.000000e+00 2.929050e-01 
1.500000e+00 5.087016e-01 
2.000000e+00 8.000977e-01 
2.500000e+00 1.176467e+00 
3.000000e+00 1.629773e+00 
3.500000e+00 2.130013e+00 
4.000000e+00 2.625506e+00 
4.500000e+00 3.050284e+00 
5.000000e+00 3.338202e+00 
5.500000e+00 3.439986e+00 
6.000000e+00 3.337215e+00 
6.500000e+00 3.047619e+00 
7.000000e+00 2.619428e+00 
7.500000e+00 2.116968e+00 
8.000000e+00 1.603034e+00 
8.500000e+00 1.124100e+00 
9.000000e+00 7.022943e-01 
9.500000e+00 3.349368e-01 
1.000000e+01 0.000000e+00 
